<?xml version="1.0" encoding="UTF-8"?>
<svg width="39px" height="40px" viewBox="0 0 39 40" version="1.1" xmlns="http://www.w3.org/2000/svg" xmlns:xlink="http://www.w3.org/1999/xlink">
    <!-- Generator: Sketch 52.2 (67145) - http://www.bohemiancoding.com/sketch -->
    <title>fax</title>
    <desc>Created with Sketch.</desc>
    <g id="Page-1" stroke="none" stroke-width="1" fill="none" fill-rule="evenodd">
        <g id="contact" transform="translate(-1053.000000, -887.000000)" fill="#FFFFFF">
            <g id="content" transform="translate(0.000000, 586.000000)">
                <g transform="translate(535.000000, 140.000000)" id="fax">
                    <g transform="translate(519.000000, 162.000000)">
                        <path d="M9.45362857,8.49478367 L9.45362857,1.48417143 C9.45362857,1.36852876 9.58629327,1.24694694 9.78081224,1.24694694 L26.8389347,1.24694694 C27.0334537,1.24694694 27.1661184,1.36852876 27.1661184,1.48417143 L27.1661184,8.49478367 L28.6661184,8.49478367 L28.6661184,1.48417143 C28.6661184,0.509476062 27.8340803,-0.253053061 26.8389347,-0.253053061 L9.78081224,-0.253053061 C8.78566659,-0.253053061 7.95362857,0.509476062 7.95362857,1.48417143 L7.95362857,8.49478367 L9.45362857,8.49478367 Z" id="Stroke-1255" fill-rule="nonzero"></path>
                        <path d="M27.3165714,38.5413878 L10.5081633,38.5413878 C9.43011297,38.5413878 8.55612245,37.6673972 8.55612245,36.5893469 L8.55612245,22.1408163 C8.55612245,21.062766 9.43011297,20.1887755 10.5081633,20.1887755 L27.3165714,20.1887755 C28.3946217,20.1887755 29.2686122,21.062766 29.2686122,22.1408163 L29.2686122,36.5893469 C29.2686122,37.6673972 28.3946217,38.5413878 27.3165714,38.5413878 Z M27.3165714,37.0413878 C27.5661946,37.0413878 27.7686122,36.8389701 27.7686122,36.5893469 L27.7686122,22.1408163 C27.7686122,21.8911932 27.5661946,21.6887755 27.3165714,21.6887755 L10.5081633,21.6887755 C10.2585401,21.6887755 10.0561224,21.8911932 10.0561224,22.1408163 L10.0561224,36.5893469 C10.0561224,36.8389701 10.2585401,37.0413878 10.5081633,37.0413878 L27.3165714,37.0413878 Z" id="Stroke-1257" fill-rule="nonzero"></path>
                        <polygon id="Line" fill-rule="nonzero" points="12.5668102 26.0918367 24.9041045 26.0918367 24.9041045 25.0918367 12.5668102 25.0918367"></polygon>
                        <polygon id="Line-Copy" fill-rule="nonzero" points="12.5668102 29.9693878 24.9041045 29.9693878 24.9041045 28.9693878 12.5668102 28.9693878"></polygon>
                        <polygon id="Line-Copy-2" fill-rule="nonzero" points="12.5668102 33.8469388 24.9041045 33.8469388 24.9041045 32.8469388 12.5668102 32.8469388"></polygon>
                        <path d="M8.70339592,29.2909388 L1.8998449,29.2909388 C1.65077204,29.2909388 1.44857959,29.0882954 1.44857959,28.8373469 L1.44857959,15.5962857 C1.44857959,12.0210516 4.3391405,9.12318367 7.90306939,9.12318367 L29.5173143,9.12318367 C33.0819113,9.12318367 35.9725796,12.0209438 35.9725796,15.5962857 L35.9725796,28.8373469 C35.9725796,29.0879523 35.7699545,29.2909388 35.5213143,29.2909388 L28.3168245,29.2909388 L28.3168245,30.7909388 L35.5213143,30.7909388 C36.5989805,30.7909388 37.4725796,29.9157818 37.4725796,28.8373469 L37.4725796,15.5962857 C37.4725796,11.1933384 33.9111623,7.62318367 29.5173143,7.62318367 L7.90306939,7.62318367 C3.50986444,7.62318367 -0.0514204082,11.193471 -0.0514204082,15.5962857 L-0.0514204082,28.8373469 C-0.0514204082,29.9159754 0.821595975,30.7909388 1.8998449,30.7909388 L8.70339592,30.7909388 L8.70339592,29.2909388 Z" id="Stroke-1263" fill-rule="nonzero"></path>
                        <path d="M31.3648474,14.9018163 C31.3648474,15.6632394 30.7489644,16.2791224 29.9910911,16.2791224 C29.2314428,16.2791224 28.6173347,15.6632394 28.6173347,14.9018163 C28.6173347,14.1403932 29.2314428,13.5245102 29.9910911,13.5245102 C30.7489644,13.5245102 31.3648474,14.1403932 31.3648474,14.9018163" id="Fill-1259"></path>
                        <path d="M26.7117862,14.9018163 C26.7117862,15.6632394 26.0959032,16.2791224 25.3380298,16.2791224 C24.5783816,16.2791224 23.9642735,15.6632394 23.9642735,14.9018163 C23.9642735,14.1403932 24.5783816,13.5245102 25.3380298,13.5245102 C26.0959032,13.5245102 26.7117862,14.1403932 26.7117862,14.9018163" id="Fill-1259-Copy"></path>
                    </g>
                </g>
            </g>
        </g>
    </g>
</svg>