<?xml version="1.0" encoding="UTF-8"?>
<svg width="24px" height="19px" viewBox="0 0 24 19" version="1.1" xmlns="http://www.w3.org/2000/svg" xmlns:xlink="http://www.w3.org/1999/xlink">
    <!-- Generator: Sketch 52.2 (67145) - http://www.bohemiancoding.com/sketch -->
    <title>icon</title>
    <desc>Created with Sketch.</desc>
    <g id="Page-1" stroke="none" stroke-width="1" fill="none" fill-rule="evenodd">
        <g id="doc-details" transform="translate(-935.000000, -969.000000)" fill-rule="nonzero">
            <g id="content" transform="translate(0.000000, 417.000000)">
                <g id="doc02" transform="translate(535.000000, 311.000000)">
                    <g id="icon" transform="translate(400.000000, 241.000000)">
                        <path d="M4,-5.68434189e-14 L10.9193837,-5.68434189e-14 C13.1285227,-5.68434189e-14 14.9193837,1.790861 14.9193837,4 L14.9193837,6.53132967 C14.9193837,8.74046867 13.1285227,10.5313297 10.9193837,10.5313297 L8.84155273,10.5313297 L8.14703937,10.5313297 L5.17053319,14.341309 L5.17053319,10.5313297 L4,10.5313297 C1.790861,10.5313297 -2.84217094e-14,8.74046867 -2.84217094e-14,6.53132967 L-2.84217094e-14,4 C-2.84217094e-14,1.790861 1.790861,-5.68434189e-14 4,-5.68434189e-14 Z M7.65928904,9.53132967 L10.9193837,9.53132967 C12.5762379,9.53132967 13.9193837,8.18818392 13.9193837,6.53132967 L13.9193837,4 C13.9193837,2.34314575 12.5762379,1 10.9193837,1 L4,1 C2.34314575,1 1,2.34314575 1,4 L1,6.53132967 C1,8.18818392 2.34314575,9.53132967 4,9.53132967 L6.17053319,9.53132967 L6.17053319,11.4369629 L7.65928904,9.53132967 Z" id="Rectangle" fill="#232075"></path>
                        <path d="M13,4 L19.9193833,4 C22.1285223,4 23.9193833,5.790861 23.9193833,8 L23.9193833,10.5313297 C23.9193833,12.7404687 22.1285223,14.5313297 19.9193833,14.5313297 L17.1470392,14.5313297 L14.1705331,18.341309 L14.1705331,14.5313297 L13,14.5313297 C10.790861,14.5313297 9,12.7404687 9,10.5313297 L9,8 C9,5.790861 10.790861,4 13,4 Z M16.6592888,13.5313297 L19.9193833,13.5313297 C21.5762376,13.5313297 22.9193833,12.1881839 22.9193833,10.5313297 L22.9193833,8 C22.9193833,6.34314575 21.5762376,5 19.9193833,5 L13,5 C11.3431458,5 10,6.34314575 10,8 L10,10.5313297 C10,12.1881839 11.3431458,13.5313297 13,13.5313297 L15.1705331,13.5313297 L15.1705331,15.4369628 L16.6592888,13.5313297 Z" id="Rectangle-Copy" fill="#232075" transform="translate(16.459692, 11.170654) scale(-1, 1) translate(-16.459692, -11.170654) "></path>
                        <path d="M16.5786722,13.5313297 L19.8387666,13.5313297 C21.4956209,13.5313297 22.8387666,12.1881839 22.8387666,10.5313297 L22.8387666,8 C22.8387666,6.34314575 21.4956209,5 19.8387666,5 L12.9193833,5 C11.2625291,5 9.91938332,6.34314575 9.91938332,8 L9.91938332,10.5313297 C9.91938332,12.1881839 11.2625291,13.5313297 12.9193833,13.5313297 L15.0899164,13.5313297 L15.0899164,15.4369628 L16.5786722,13.5313297 Z" id="Path-Copy" fill="#FFFFFF" transform="translate(16.379075, 10.218481) scale(-1, 1) translate(-16.379075, -10.218481) "></path>
                        <path d="M17.7597656,12 L17.2607422,10.6123047 L15.3500977,10.6123047 L14.8613281,12 L14,12 L15.8696289,6.98242188 L16.7583008,6.98242188 L18.6279297,12 L17.7597656,12 Z M17.0454102,9.90820312 L16.5771484,8.54785156 C16.5429686,8.45670527 16.4956872,8.31315202 16.4353027,8.1171875 C16.3749183,7.92122298 16.3333334,7.77766973 16.3105469,7.68652344 C16.2490231,7.96679828 16.1590175,8.27327308 16.0405273,8.60595703 L15.5893555,9.90820312 L17.0454102,9.90820312 Z" id="A" fill="#232075"></path>
                        <path d="M6.92424512,3.30196933 C6.8969385,3.30131471 6.83719974,3.28444384 6.74502712,3.25135624 C6.63411638,3.21277859 6.57625078,3.17781812 6.57142857,3.14647378 C6.54972864,2.96564105 6.63652705,2.76491973 6.8318264,2.5443038 C7.02712575,2.32368787 7.22121664,2.21338156 7.41410488,2.21338156 C7.47438246,2.21338156 7.54309787,2.22423136 7.62025316,2.24593128 C7.73116391,2.27486452 7.79144058,2.28933092 7.80108499,2.28933092 L7.64195298,2.62567812 C7.60337533,2.59192268 7.48041092,2.57504521 7.27305606,2.57504521 C7.22001179,2.57504521 7.17118769,2.57745627 7.12658228,2.58227848 C7.08197687,2.58710069 7.02833063,2.62326669 6.96564195,2.69077758 C6.90295327,2.75828846 6.8716094,2.81494854 6.8716094,2.86075949 C6.8716094,2.87281501 6.87402047,2.88245928 6.87884268,2.88969259 C6.93188694,2.97167009 7.07896203,3.01265823 7.32007233,3.01265823 C7.39481653,3.01265823 7.46353193,3.00663056 7.52622061,2.99457505 L7.98191682,2.88969259 L7.90596745,3.24050633 C7.71549031,3.27667288 7.56841523,3.31404441 7.46473779,3.35262206 C7.30560499,3.41289964 7.13441924,3.49849251 6.95117541,3.60940325 C6.7872204,3.71066958 6.70765519,3.76130199 6.7124774,3.76130199 C6.68113306,3.7661242 6.66546112,3.75406886 6.66546112,3.72513562 C6.66546112,3.67932467 6.70765479,3.59493732 6.7920434,3.47197107 C6.86435215,3.37073882 6.90895121,3.31408281 6.9258419,3.30200134 L6.92424512,3.30196933 Z M7.22242315,8.04339964 L7.22242315,4.06871609 L7.98191682,3.50090416 L7.98191682,7.3960217 L7.22242315,8.04339964 Z" id="أ" fill="#232075"></path>
                    </g>
                </g>
            </g>
        </g>
    </g>
</svg>