<?xml version="1.0" encoding="UTF-8"?>
<svg width="32px" height="39px" viewBox="0 0 32 39" version="1.1" xmlns="http://www.w3.org/2000/svg" xmlns:xlink="http://www.w3.org/1999/xlink">
    <!-- Generator: Sketch 52.2 (67145) - http://www.bohemiancoding.com/sketch -->
    <title>Map icon</title>
    <desc>Created with Sketch.</desc>
    <g id="Page-1" stroke="none" stroke-width="1" fill="none" fill-rule="evenodd">
        <g id="CME-details" transform="translate(-574.000000, -1242.000000)">
            <g id="content" transform="translate(0.000000, 586.000000)">
                <g id="master" transform="translate(535.000000, 125.000000)">
                    <g id="Map-icon" transform="translate(40.000000, 532.000000)">
                        <path d="M29.8790323,14.790121 C29.8790323,22.2560484 17.3980242,34.2605242 15.2520968,36.6332258 C15.0820161,36.8209274 14.7970161,36.8209274 14.6269355,36.6332258 C12.4810081,34.2605242 0,22.2560484 0,14.790121 C0,6.62165323 6.68830645,0 14.9395161,0 C23.1907258,0 29.8790323,6.62165323 29.8790323,14.790121 Z" id="Stroke-383" stroke="#FFFFFF" stroke-width="1.5" stroke-linecap="round" stroke-linejoin="round"></path>
                        <path d="M21.4516129,14.5564516 C21.4516129,17.9417204 18.7079342,20.6854839 15.322075,20.6854839 C11.937227,20.6854839 9.19354839,17.9417204 9.19354839,14.5564516 C9.19354839,11.1711828 11.937227,8.42741935 15.322075,8.42741935 C18.7079342,8.42741935 21.4516129,11.1711828 21.4516129,14.5564516 Z" id="Stroke-385" fill="#FFFFFF"></path>
                    </g>
                </g>
            </g>
        </g>
    </g>
</svg>