<?xml version="1.0" encoding="UTF-8"?>
<svg width="43px" height="25px" viewBox="0 0 43 25" version="1.1" xmlns="http://www.w3.org/2000/svg" xmlns:xlink="http://www.w3.org/1999/xlink">
    <!-- Generator: Sketch 52.2 (67145) - http://www.bohemiancoding.com/sketch -->
    <title>dine</title>
    <desc>Created with Sketch.</desc>
    <g id="Page-1" stroke="none" stroke-width="1" fill="none" fill-rule="evenodd">
        <g id="packages-details" transform="translate(-1151.000000, -1384.000000)">
            <g id="complimentary" transform="translate(1035.000000, 1291.000000)">
                <g id="dine" transform="translate(117.000000, 94.000000)">
                    <path d="M19.1915837,0 L20.5922636,0.00132431128 C21.9183406,0.00132431128 22.9936814,1.07798938 22.9936814,2.40583216 C22.9936814,3.73367493 21.9183406,4.81034 20.5922636,4.81034 L19,4.81034" id="Stroke-1187" stroke="#FFFFFF" stroke-width="1.5" stroke-linejoin="round" transform="translate(20.996841, 2.405170) rotate(-90.000000) translate(-20.996841, -2.405170) "></path>
                    <path d="M37,20 C37,11.163444 29.836556,4 21,4 C12.163444,4 5,11.163444 5,20" id="Oval" stroke="#FFFFFF" stroke-width="1.5"></path>
                    <path d="M0.5,20 L41,20" id="Line-4" stroke="#FFFFFF" stroke-width="1.5" stroke-linecap="round"></path>
                    <path d="M6,17 L36.5,17" id="Line-4-Copy" stroke="#FFFFFF" stroke-width="1.5" stroke-linecap="round"></path>
                    <polygon id="Rectangle" fill="#FFFFFF" points="3 22 39 22 37 24 5 24"></polygon>
                </g>
            </g>
        </g>
    </g>
</svg>