<?xml version="1.0" encoding="UTF-8"?>
<svg width="50px" height="44px" viewBox="0 0 50 44" version="1.1" xmlns="http://www.w3.org/2000/svg" xmlns:xlink="http://www.w3.org/1999/xlink">
    <!-- Generator: Sketch 52.2 (67145) - http://www.bohemiancoding.com/sketch -->
    <title>print</title>
    <desc>Created with Sketch.</desc>
    <g id="Page-1" stroke="none" stroke-width="1" fill="none" fill-rule="evenodd">
        <g id="homepage" transform="translate(-1034.000000, -387.000000)">
            <g id="accessibility-hover" transform="translate(0.000000, 181.000000)">
                <g id="print" transform="translate(1034.500000, 206.000000)">
                    <path d="M16.5,0 L33.5,0 C34.6045695,-2.02906125e-16 35.5,0.8954305 35.5,2 L35.5,12 L14.5,12 L14.5,2 C14.5,0.8954305 15.3954305,2.02906125e-16 16.5,0 Z" id="Rectangle" fill="#C6C4DE"></path>
                    <path d="M38.9,36.1 L10.1,36.1 C4.52185763,36.1 0,31.5781424 0,26 L0,13.6 C0,12.4398576 0.939857625,11.5 2.1,11.5 L46.9,11.5 C48.0601424,11.5 49,12.4398576 49,13.6 L49,26 C49,31.5781424 44.4781424,36.1 38.9,36.1 Z M38.9,35.1 C43.9258576,35.1 48,31.0258576 48,26 L48,13.6 C48,12.9921424 47.5078576,12.5 46.9,12.5 L2.1,12.5 C1.49214237,12.5 1,12.9921424 1,13.6 L1,26 C1,31.0258576 5.07414237,35.1 10.1,35.1 L38.9,35.1 Z" id="Stroke-345" fill="#5f6179" fill-rule="nonzero"></path>
                    <path d="M34.0538462,43.1 L15.6384615,43.1 C11.972098,43.1 9,40.127902 9,36.4615385 L9,29.0230769 C9,28.1816845 9.68168455,27.5 10.5230769,27.5 L39.1692308,27.5 C40.0106231,27.5 40.6923077,28.1816845 40.6923077,29.0230769 L40.6923077,36.4615385 C40.6923077,40.127902 37.7202097,43.1 34.0538462,43.1 Z M34.0538462,42.1 C37.1679249,42.1 39.6923077,39.5756172 39.6923077,36.4615385 L39.6923077,29.0230769 C39.6923077,28.7339693 39.4583384,28.5 39.1692308,28.5 L10.5230769,28.5 C10.2339693,28.5 10,28.7339693 10,29.0230769 L10,36.4615385 C10,39.5756172 12.5243828,42.1 15.6384615,42.1 L34.0538462,42.1 Z" id="Stroke" fill="#5f6179" fill-rule="nonzero"></path>
                    <path d="M34.0538462,42.1 C37.1679249,42.1 39.6923077,39.5756172 39.6923077,36.4615385 L39.6923077,29.0230769 C39.6923077,28.7339693 39.4583384,28.5 39.1692308,28.5 L10.5230769,28.5 C10.2339693,28.5 10,28.7339693 10,29.0230769 L10,36.4615385 C10,39.5756172 12.5243828,42.1 15.6384615,42.1 L34.0538462,42.1 Z" id="Path" fill="#232075" fill-rule="nonzero"></path>
                </g>
            </g>
        </g>
    </g>
</svg>
