<?xml version="1.0" encoding="UTF-8"?>
<svg width="31px" height="46px" viewBox="0 0 31 46" version="1.1" xmlns="http://www.w3.org/2000/svg" xmlns:xlink="http://www.w3.org/1999/xlink">
    <!-- Generator: Sketch 52.2 (67145) - http://www.bohemiancoding.com/sketch -->
    <title>Smartphone</title>
    <desc>Created with Sketch.</desc>
    <g id="Page-1" stroke="none" stroke-width="1" fill="none" fill-rule="evenodd">
        <g id="medical-tourism" transform="translate(-969.000000, -2015.000000)">
            <g id="content" transform="translate(0.000000, 585.000000)">
                <g id="contacts" transform="translate(135.000000, 1390.000000)">
                    <g id="Smartphone" transform="translate(835.000000, 41.000000)">
                        <path d="M27.7925455,43.9787273 L1.61072727,43.9787273 C0.807090909,43.9787273 0.156181818,43.3278182 0.156181818,42.5241818 L0.156181818,1.79690909 C0.156181818,0.993272727 0.807090909,0.342363636 1.61072727,0.342363636 L27.7925455,0.342363636 C28.5961818,0.342363636 29.2470909,0.993272727 29.2470909,1.79690909 L29.2470909,42.5241818 C29.2470909,43.3278182 28.5961818,43.9787273 27.7925455,43.9787273 Z" id="Stroke-816" stroke="#232075" stroke-width="1.5" stroke-linecap="round"></path>
                        <path d="M0.156181818,35.2513636 L28.9207273,35.2513636" id="Stroke-817" stroke="#232075" stroke-width="1.5"></path>
                        <path d="M0.156181818,4.70609091 L28.9207273,4.70609091" id="Stroke-818" stroke="#232075" stroke-width="1.5"></path>
                        <path d="M16.1561818,39.6150909 C16.1561818,40.4187273 15.5052727,41.0696364 14.7016364,41.0696364 C13.898,41.0696364 13.2470909,40.4187273 13.2470909,39.6150909 C13.2470909,38.8114545 13.898,38.1605455 14.7016364,38.1605455 C15.5052727,38.1605455 16.1561818,38.8114545 16.1561818,39.6150909" id="Fill-819" fill="#232075"></path>
                    </g>
                </g>
            </g>
        </g>
    </g>
</svg>