<?xml version="1.0" encoding="UTF-8"?>
<svg width="50px" height="44px" viewBox="0 0 50 44" version="1.1" xmlns="http://www.w3.org/2000/svg" xmlns:xlink="http://www.w3.org/1999/xlink">
    <!-- Generator: Sketch 52.2 (67145) - http://www.bohemiancoding.com/sketch -->
    <title>Sound</title>
    <desc>Created with Sketch.</desc>
    <g id="Page-1" stroke="none" stroke-width="1" fill="none" fill-rule="evenodd">
        <g id="homepage" transform="translate(-734.000000, -387.000000)" fill="#C6C4DE" fill-rule="nonzero">
            <g id="accessibility-hover" transform="translate(0.000000, 181.000000)">
                <g id="speaker" transform="translate(735.000000, 60.000000)">
                    <g id="Sound" transform="translate(0.000000, 146.000000)">
                        <path d="M32.787,18.1743 C34.8498576,18.1743 36.522,19.8464424 36.522,21.9093 C36.522,23.9721576 34.8498576,25.6443 32.787,25.6443 C32.5108576,25.6443 32.287,25.8681576 32.287,26.1443 C32.287,26.4204424 32.5108576,26.6443 32.787,26.6443 C35.4021424,26.6443 37.522,24.5244424 37.522,21.9093 C37.522,19.2941576 35.4021424,17.1743 32.787,17.1743 C32.5108576,17.1743 32.287,17.3981576 32.287,17.6743 C32.287,17.9504424 32.5108576,18.1743 32.787,18.1743 Z" id="Stroke-27"></path>
                        <path d="M32.787,12.5269 C37.9685044,12.5269 42.169,16.7276892 42.169,21.9089 C42.169,27.090964 37.9686512,31.2919 32.787,31.2919 C32.5108576,31.2919 32.287,31.5157576 32.287,31.7919 C32.287,32.0680424 32.5108576,32.2919 32.787,32.2919 C38.5209673,32.2919 43.169,27.6432175 43.169,21.9089 C43.169,16.1754201 38.5208048,11.5269 32.787,11.5269 C32.5108576,11.5269 32.287,11.7507576 32.287,12.0269 C32.287,12.3030424 32.5108576,12.5269 32.787,12.5269 Z" id="Stroke-29"></path>
                        <path d="M9.12550189,14.9831898 L23.9385019,1.35718977 C24.6679339,0.624181938 25.934,1.10706381 25.934,2.0702 L25.934,41.2782 C25.934,42.2410091 24.6680049,42.7235914 23.9544151,42.0065104 L9.12550189,28.3652102 C8.92226676,28.1782608 8.60595967,28.191463 8.41901023,28.3946981 C8.2320608,28.5979332 8.24526297,28.9142403 8.44849811,29.1011898 L23.2614981,42.7271898 C24.5765094,44.0493254 26.934,43.150678 26.934,41.2782 L26.934,2.0702 C26.934,0.197439071 24.5761403,-0.701856537 23.2454133,0.63668291 L8.44849811,14.2472102 C8.24526297,14.4341597 8.2320608,14.7504668 8.41901023,14.9537019 C8.60595967,15.156937 8.92226676,15.1701392 9.12550189,14.9831898 Z" id="Stroke-31"></path>
                        <path d="M8.787,28.2329 L7.375,28.2329 C3.75278604,28.2329 0.816,25.2964013 0.816,21.6739 C0.816,18.0513987 3.75278604,15.1149 7.375,15.1149 L8.787,15.1149 C9.06314237,15.1149 9.287,14.8910424 9.287,14.6149 C9.287,14.3387576 9.06314237,14.1149 8.787,14.1149 L7.375,14.1149 C3.20052319,14.1149 -0.184,17.499092 -0.184,21.6739 C-0.184,25.848708 3.20052319,29.2329 7.375,29.2329 L8.787,29.2329 C9.06314237,29.2329 9.287,29.0090424 9.287,28.7329 C9.287,28.4567576 9.06314237,28.2329 8.787,28.2329 Z" id="Stroke-33"></path>
                        <path d="M32.787,6.8799 C41.0875073,6.8799 47.816,13.608692 47.816,21.9089 C47.816,30.2099583 41.0876569,36.9389 32.787,36.9389 C32.5108576,36.9389 32.287,37.1627576 32.287,37.4389 C32.287,37.7150424 32.5108576,37.9389 32.787,37.9389 C41.6399616,37.9389 48.816,30.7622232 48.816,21.9089 C48.816,13.0564172 41.639802,5.8799 32.787,5.8799 C32.5108576,5.8799 32.287,6.10375763 32.287,6.3799 C32.287,6.65604237 32.5108576,6.8799 32.787,6.8799 Z" id="Stroke-35"></path>
                    </g>
                </g>
            </g>
        </g>
    </g>
</svg>