<?xml version="1.0" encoding="UTF-8"?>
<svg width="26px" height="18px" viewBox="0 0 26 18" version="1.1" xmlns="http://www.w3.org/2000/svg" xmlns:xlink="http://www.w3.org/1999/xlink">
    <!-- Generator: Sketch 52.2 (67145) - http://www.bohemiancoding.com/sketch -->
    <title>Youtube</title>
    <desc>Created with Sketch.</desc>
    <g id="Symbols" stroke="none" stroke-width="1" fill="none" fill-rule="evenodd">
        <g id="footer" transform="translate(-251.000000, -500.000000)" fill="#565565" fill-rule="nonzero">
            <g id="social">
                <g transform="translate(135.000000, 483.000000)">
                    <g id="Youtube" style="mix-blend-mode: luminosity;" transform="translate(116.000000, 17.000000)">
                        <path d="M12.918277,0 C14.6066397,0 16.2315201,0.0225736245 17.7946412,0.0678733792 C19.3551331,0.112554641 20.5049465,0.16011281 21.2321492,0.209745511 L22.3407891,0.270476923 C22.350847,0.271364229 22.3645706,0.272587125 22.575645,0.291445673 C22.7127018,0.304388178 22.8089124,0.317044388 22.8508474,0.326102353 C22.9443361,0.345565767 23.0724114,0.370113535 23.2259014,0.397689699 C23.3513385,0.420733721 23.4547284,0.449678836 23.5324587,0.482005946 C23.6394922,0.527025095 23.7691155,0.58729993 23.9171744,0.66132942 C24.0423356,0.723474967 24.1655706,0.801137552 24.2892556,0.895747368 C24.4127183,0.990187055 24.5341416,1.10117922 24.6532708,1.22888575 C24.7049978,1.2811192 24.7671904,1.3553455 24.8488957,1.46252367 C24.9035906,1.53427042 25.0354196,1.80021906 25.2118663,2.21649113 C25.3861317,2.62761729 25.5056371,3.08279801 25.5692642,3.58265244 C25.6479501,4.2160405 25.7096628,4.89059059 25.7536839,5.60263073 C25.7985844,6.32048823 25.8260668,6.88589923 25.8360553,7.29209763 L25.8358758,9.93146631 C25.8458274,11.3654409 25.7570191,12.7959023 25.569537,14.227735 C25.5052842,14.7324748 25.3918622,15.1832447 25.2304904,15.5829039 C25.0706922,15.9781677 24.9333582,16.2421422 24.8405819,16.3545871 L24.6292544,16.6109976 C24.5341416,16.7113208 24.4127183,16.8223129 24.2892556,16.9167526 C24.1712392,17.0074647 24.0526374,17.08017 23.9307962,17.1372564 C23.7738256,17.2108021 23.6417375,17.2698454 23.5324587,17.3152932 C23.4532009,17.3482555 23.3501125,17.3772175 23.2255555,17.3996716 C23.0426387,17.4331525 22.927394,17.4548029 22.8516083,17.4700732 C22.8014889,17.4797823 22.7010771,17.4928529 22.5642734,17.5062359 C22.4730216,17.5151304 22.3529494,17.5259349 22.3732373,17.5259349 C19.824756,17.7175542 16.6890223,17.8125 12.918277,17.8125 C10.8467163,17.7922943 9.04333177,17.7597072 7.51462188,17.7147947 C5.98837051,17.6699544 4.98477617,17.6323897 4.51123357,17.6025516 L3.78290742,17.5430976 L3.25745403,17.4845192 C2.93728401,17.4399849 2.68433318,17.3934263 2.52514929,17.3504949 C2.38405865,17.312558 2.16046246,17.2204673 1.86333948,17.0744672 C1.5981313,16.9439171 1.37070412,16.7788126 1.17749261,16.5774943 C1.13155629,16.5313808 1.06936365,16.4571545 0.987658321,16.3499763 C0.933619656,16.2790903 0.802552346,16.014423 0.624448335,15.5954448 C0.450295092,15.1845825 0.33094948,14.72953 0.267927667,14.2304379 C0.188848823,13.598357 0.127030808,12.9241672 0.0828701914,12.2098693 C0.037969607,11.4920118 0.0104872565,10.9266008 0.000498771249,10.5204024 L0.000678203116,7.88103369 C-0.00874828133,6.44348623 0.0800847465,5.012487 0.267550747,3.58498855 C0.331295081,3.08023307 0.444560944,2.62957953 0.606063683,2.22959611 C0.76665712,1.83360045 0.903640319,1.57018967 0.996582561,1.45717191 L1.20729965,1.20150239 C1.30241246,1.10117922 1.42383579,0.990187055 1.5472984,0.895747368 C1.67005513,0.801847634 1.79406359,0.723768231 1.91863347,0.661701835 C2.06743859,0.58729993 2.19706189,0.527025095 2.30627393,0.481094798 C2.38187293,0.449659181 2.48519814,0.420760567 2.61313302,0.397341979 C2.76494875,0.369976021 2.89296851,0.345409654 2.98125979,0.327045068 C3.02764165,0.317044388 3.12385228,0.304388178 3.2629586,0.291255764 C3.47198344,0.272587125 3.48570706,0.271364229 3.46331673,0.271364229 C6.01498651,0.0901349599 9.1538699,0 12.918277,0 Z M10,12.539939 L17.2556242,8.79235649 L10,5 L10,12.539939 Z" id="Combined-Shape"></path>
                    </g>
                </g>
            </g>
        </g>
    </g>
</svg>